<?xml version="1.0" encoding="utf-8"?>
<!-- Generator: Adobe Illustrator 24.0.2, SVG Export Plug-In . SVG Version: 6.00 Build 0)  -->
<svg version="1.1" id="Слой_1" xmlns="http://www.w3.org/2000/svg" xmlns:xlink="http://www.w3.org/1999/xlink" x="0px" y="0px"
	 viewBox="0 0 512 360" style="enable-background:new 0 0 512 360;" xml:space="preserve">
<path d="M437,210c-12.3,0-23.9,3-34.2,8.3l-19.2-24c9-5.3,18.8-9.3,29.1-11.6c8.4-1.9,17-2.8,25.4-2.7c0.1,0,0.3,0,0.4,0
	c22.3,0,43.5-17.9,43.5-46.8C482,59.7,422.2,0,349,0h-17c-8.3,0-15,6.7-15,15s6.7,15,15,15h17c4.4,0,8.8,0.3,13,0.8v29.5
	c-8.8,0.8-17.2,3.1-25,6.8C317.1,43.9,287.3,30,256,30c-35.5,0-68.3,18-87.5,47l-24.8-14.9c-2.3-1.4-5-2.1-7.7-2.1H15
	C6.7,60,0,66.7,0,75c0,41.4,33.6,75,75,75c28.7,0,21.9-0.4,33.7,1.4C167,160.6,211,211.6,211,270h-31c0-49.6-40.4-90-90-90
	S0,220.4,0,270s40.4,90,90,90c39.1,0,72.5-25.1,84.9-60H317c8.3,0,15-6.7,15-15c0-8.4,1-16.9,3-25.3c4.1-17.5,13.1-33.6,25.3-46.6
	l19.1,23.9c-10.9,13-17.4,29.7-17.4,48c0,41.4,33.6,75,75,75s75-33.6,75-75S478.4,210,437,210z M90,330c-33.1,0-60-26.9-60-60
	s26.9-60,60-60s60,26.9,60,60h-45c-8.3,0-15-6.7-15-15c0-8.3-6.7-15-15-15s-15,6.7-15,15c0,24.8,20.2,44.8,45,44.8h36.9
	C131.5,317.7,112.2,330,90,330z M256,60c21.8,0,42.6,9.4,56.9,25c-2.3,2.6-4.5,5.4-6.4,8.3l-18.1,26.5
	c-33.1-1.2-65.5-10.6-94.1-27.4C208.1,72.4,231.1,60,256,60z M113.3,122c-14.6-2.3-6.4-1.8-38.3-1.8c-19.6,0-36.2-12.7-42.4-30.2
	h99.3l45.3,27.2c28.1,16.9,59.4,27.5,91.7,31.3l-1.3,1.9c-22.5,1.9-43.1,11.6-58.8,27.3C185,147.7,150.8,127.9,113.3,122z
	 M302.8,270H241c0-23-5.4-45.6-15.6-66c12.2-15.1,30.5-24,50.3-24c5,0,9.6-2.4,12.4-6.5l43.2-63.3c0,0,0.1-0.1,0.1-0.1
	c8.4-12.5,22.4-20,37.4-20h8.2c8.3,0,15-6.7,15-15V39.5c34.6,16,60,50.8,60,95.6c0,7.8-5.9,15-13.6,14.9
	c-10.7-0.1-21.5,1.1-32.2,3.4c-24.1,5.4-46.3,17.7-64.3,35.5C320,210.5,306.3,238.2,302.8,270z M437,330c-24.8,0-45-20.2-45-45
	c0-8.7,2.5-16.8,6.8-23.7l26.5,33.1c5.2,6.5,14.6,7.5,21.1,2.3c6.5-5.2,7.5-14.6,2.3-21.1l-26.5-33.1c4.6-1.6,9.6-2.5,14.8-2.5
	c24.8,0,45,20.2,45,45S461.8,330,437,330z"/>
</svg>
